%YAML 1.1
%TAG !u! tag:unity3d.com,2011:
--- !u!1001 &7544165859220213556
PrefabInstance:
  m_ObjectHideFlags: 0
  serializedVersion: 2
  m_Modification:
    m_TransformParent: {fileID: 0}
    m_Modifications:
    - target: {fileID: 4966364946268018994, guid: 15a884d37cc4e5e459bbf6abf0ee22ec,
        type: 3}
      propertyPath: m_Name
      value: B_
      objectReference: {fileID: 0}
    - target: {fileID: 292824946098017540, guid: 15a884d37cc4e5e459bbf6abf0ee22ec,
        type: 3}
      propertyPath: m_LocalPosition.x
      value: 0
      objectReference: {fileID: 0}
    - target: {fileID: 292824946098017540, guid: 15a884d37cc4e5e459bbf6abf0ee22ec,
        type: 3}
      propertyPath: m_LocalPosition.y
      value: 0
      objectReference: {fileID: 0}
    - target: {fileID: 292824946098017540, guid: 15a884d37cc4e5e459bbf6abf0ee22ec,
        type: 3}
      propertyPath: m_LocalPosition.z
      value: 0
      objectReference: {fileID: 0}
    - target: {fileID: 292824946098017540, guid: 15a884d37cc4e5e459bbf6abf0ee22ec,
        type: 3}
      propertyPath: m_LocalRotation.x
      value: 0
      objectReference: {fileID: 0}
    - target: {fileID: 292824946098017540, guid: 15a884d37cc4e5e459bbf6abf0ee22ec,
        type: 3}
      propertyPath: m_LocalRotation.y
      value: 0
      objectReference: {fileID: 0}
    - target: {fileID: 292824946098017540, guid: 15a884d37cc4e5e459bbf6abf0ee22ec,
        type: 3}
      propertyPath: m_LocalRotation.z
      value: 0
      objectReference: {fileID: 0}
    - target: {fileID: 292824946098017540, guid: 15a884d37cc4e5e459bbf6abf0ee22ec,
        type: 3}
      propertyPath: m_LocalRotation.w
      value: 1
      objectReference: {fileID: 0}
    - target: {fileID: 292824946098017540, guid: 15a884d37cc4e5e459bbf6abf0ee22ec,
        type: 3}
      propertyPath: m_RootOrder
      value: 0
      objectReference: {fileID: 0}
    - target: {fileID: 292824946098017540, guid: 15a884d37cc4e5e459bbf6abf0ee22ec,
        type: 3}
      propertyPath: m_LocalEulerAnglesHint.x
      value: 0
      objectReference: {fileID: 0}
    - target: {fileID: 292824946098017540, guid: 15a884d37cc4e5e459bbf6abf0ee22ec,
        type: 3}
      propertyPath: m_LocalEulerAnglesHint.y
      value: 0
      objectReference: {fileID: 0}
    - target: {fileID: 292824946098017540, guid: 15a884d37cc4e5e459bbf6abf0ee22ec,
        type: 3}
      propertyPath: m_LocalEulerAnglesHint.z
      value: 0
      objectReference: {fileID: 0}
    - target: {fileID: 709091423455994533, guid: 15a884d37cc4e5e459bbf6abf0ee22ec,
        type: 3}
      propertyPath: m_Sprite
      value: 
      objectReference: {fileID: 21300000, guid: 801816deed824a1428c10eb9bb7b5112,
        type: 3}
    m_RemovedComponents: []
  m_SourcePrefab: {fileID: 100100000, guid: 15a884d37cc4e5e459bbf6abf0ee22ec, type: 3}
